<?xml version="1.0" encoding="iso-8859-1"?>
<!-- Generator: Adobe Illustrator 19.0.0, SVG Export Plug-In . SVG Version: 6.00 Build 0)  -->
<svg version="1.1" id="Capa_1" xmlns="http://www.w3.org/2000/svg" xmlns:xlink="http://www.w3.org/1999/xlink" x="0px" y="0px"
     viewBox="0 0 511.999 511.999" style="enable-background:new 0 0 511.999 511.999;" xml:space="preserve">
<linearGradient id="SVGID_1_" gradientUnits="userSpaceOnUse" x1="69.4968" y1="259.5426" x2="440.12" y2="259.5426" gradientTransform="matrix(1.0039 0 0 -1.0039 0.1922 516.5601)">
    <stop  offset="0" style="stop-color:#9d0000"/>
    <stop  offset="1" style="stop-color:#9d0000"/>
</linearGradient>
<path style="fill:url(#SVGID_1_);" d="M441.874,59.19l-48.881,430.297c-1.581,13.917-14.159,23.929-28.077,22.348L92.474,480.886
    c-13.917-1.581-23.929-14.159-22.348-28.077l48.881-430.297c1.581-13.917,14.159-23.929,28.077-22.348l272.441,30.949
    C433.443,32.694,443.455,45.272,441.874,59.19z"/>
<linearGradient id="SVGID_2_" gradientUnits="userSpaceOnUse" x1="417.0784" y1="259.1428" x2="322.0484" y2="282.1128" gradientTransform="matrix(1.0039 0 0 -1.0039 0.1922 516.5601)">
    <stop  offset="0" style="stop-color:#9d0000;stop-opacity:0"/>
    <stop  offset="1" style="stop-color:#9d0000"/>
</linearGradient>
<polygon style="fill:url(#SVGID_2_);" points="392.164,28.005 394.904,472.531 394.922,472.503 439.984,75.826 "/>
<linearGradient id="SVGID_3_" gradientUnits="userSpaceOnUse" x1="145.0684" y1="259.5421" x2="661.3684" y2="259.5421" gradientTransform="matrix(1.0039 0 0 -1.0039 0.1922 516.5601)">
    <stop  offset="0" style="stop-color:#3b3b3b"/>
    <stop  offset="1" style="stop-color:#3b3b3b"/>
</linearGradient>
<path style="fill:url(#SVGID_3_);" d="M394.904,39.468v433.065c0,14.007-11.367,25.375-25.375,25.375H95.336
    c-14.007,0-25.375-11.367-25.375-25.375V39.468c0-14.007,11.367-25.375,25.375-25.375h274.193
    C383.537,14.093,394.904,25.46,394.904,39.468z"/>

<path style="fill:url(#SVGID_4_);" d="M394.904,452.232v20.3c0,14.007-11.367,25.375-25.375,25.375H95.336
    c-14.007,0-25.375-11.367-25.375-25.375v-20.3H394.904z"/>
<g>
    <path style="fill:#FFFFF8;" d="M334.465,204.937c-3.025-6.548-12.363-6.319-15.432-6.245c-2.952,0.073-6.352,0.42-10.177,1.039
        c2.293,2.864,4.41,5.869,6.338,9.001c3.356-0.346,5.801-0.356,7.503-0.2c1.493,0.132,2.254,1.839,1.39,3.064
        c-0.923,1.303-2.366,3.006-4.528,5.108c-0.579,0.565-1.217,1.164-1.903,1.787c-14.066-29.712-44.312-50.27-79.369-50.27
        c-48.478,0-87.777,39.3-87.777,87.778c0,13.6,3.095,26.477,8.617,37.968c-0.87,0.175-1.717,0.338-2.522,0.482
        c-7.119,1.288-11.7,1.454-14.417,1.215c-1.483-0.132-2.288-1.82-1.43-3.035c1.634-2.327,4.932-5.913,11.016-10.826
        c-1.019-3.41-1.839-6.909-2.449-10.475c-5.86,4.439-10.446,8.504-13.68,12.124c-2.049,2.288-8.269,9.255-5.244,15.803
        c2.634,5.708,10.075,6.264,13.974,6.264c0.571,0,1.068-0.01,1.459-0.02c4.298-0.102,9.543-0.79,15.666-2.049
        c0.849-0.174,1.721-0.362,2.603-0.558c15.56,24.563,42.959,40.884,74.186,40.884c48.478,0,87.778-39.299,87.778-87.777
        c0-9.758-1.616-19.134-4.556-27.902c0.706-0.597,1.394-1.191,2.047-1.771c2.201-1.962,4.093-3.825,5.664-5.586
        c1.658-1.854,6.06-6.781,6.06-12.065C335.281,207.435,335.042,206.181,334.465,204.937z M257.279,177.777
        c14.43,3.49,27.343,10.867,37.565,20.966c-3.634,1.834-7.549,3.476-11.701,4.898c-3.468,1.198-7.101,2.247-10.871,3.142
        c-1.26-4.086-2.681-7.961-4.266-11.573c-3.155-7.202-6.812-13.061-10.832-17.459C257.209,177.759,257.244,177.768,257.279,177.777z
         M205.901,260.18h43.153l0.175,0.347c-3.479,1.693-7.006,3.369-10.579,5.021c-10.648,4.921-21.228,9.426-31.372,13.375
        C206.51,272.883,206.041,266.605,205.901,260.18z M247.124,246.501c-2.244-0.411-3.99,1.922-2.964,3.958l0.685,1.36h-38.944
        c0.274-12.549,1.781-24.552,4.385-35.273c8.905,1.581,18.337,2.407,28.002,2.407c9.666,0,19.098-0.825,28.002-2.407
        c2.533,10.43,4.019,22.078,4.35,34.258L247.124,246.501z M242.742,274.403c3.677-1.7,7.304-3.422,10.874-5.161l4.858,9.648
        c1.026,2.037,3.939,2.023,4.945-0.024l7.111-14.464c-0.488,11.016-1.931,21.539-4.241,31.05
        c-8.906-1.581-18.337-2.407-28.002-2.407c-9.666,0-19.098,0.825-28.002,2.407c-0.527-2.169-0.997-4.404-1.433-6.672
        C219.755,284.587,231.184,279.746,242.742,274.403z M238.288,176.581c7.902,0,15.942,8.012,22.061,21.983
        c1.356,3.098,2.587,6.409,3.691,9.898c-8.182,1.402-16.852,2.132-25.753,2.132s-17.571-0.73-25.752-2.132
        c1.104-3.489,2.334-6.8,3.691-9.898C222.345,184.595,230.387,176.581,238.288,176.581z M219.404,177.749
        c-4.022,4.399-7.68,10.258-10.834,17.461c-1.582,3.612-3.006,7.485-4.266,11.573c-8.276-1.967-15.899-4.671-22.573-8.041
        C191.98,188.619,204.929,181.23,219.404,177.749z M174.79,206.545c0.368-0.474,0.746-0.944,1.123-1.408
        c0.448,0.241,0.886,0.483,1.347,0.72c7.334,3.783,15.738,6.803,24.841,8.988c-1.225,5.109-2.226,10.481-2.967,16.046
        c-0.904,6.737-1.444,13.755-1.597,20.931h-39.627C158.783,234.793,164.945,219.168,174.79,206.545z M158.74,268.306
        c-0.413-2.668-0.689-5.381-0.829-8.128h39.627c0.158,7.479,0.752,14.78,1.727,21.78c-10.064,3.71-19.576,6.808-28.139,9.141
        c-1.633,0.445-3.183,0.845-4.67,1.215C162.697,284.897,160.045,276.824,158.74,268.306z M175.913,306.862
        c-1.522-1.864-2.956-3.802-4.308-5.8c8.9-2.337,18.798-5.489,29.316-9.317c0.368,1.829,0.755,3.639,1.181,5.408
        c-3.893,0.935-7.654,2.019-11.262,3.253c-4.832,1.654-9.379,3.568-13.579,5.736C176.799,306.379,176.361,306.62,175.913,306.862z
         M181.732,313.257c6.674-3.369,14.296-6.074,22.573-8.041c1.259,4.088,2.683,7.961,4.266,11.573
        c3.155,7.203,6.813,13.062,10.834,17.461C204.929,330.77,191.98,323.38,181.732,313.257z M238.288,335.418
        c-7.901,0-15.942-8.012-22.06-21.983c-1.357-3.098-2.587-6.41-3.691-9.898c8.182-1.402,16.852-2.132,25.752-2.132
        c8.901,0,17.571,0.73,25.753,2.132c-1.104,3.489-2.335,6.8-3.691,9.898C254.231,327.405,246.189,335.418,238.288,335.418z
         M257.171,334.25c4.022-4.399,7.68-10.258,10.834-17.461c1.582-3.612,3.006-7.485,4.266-11.573
        c8.276,1.967,15.899,4.671,22.572,8.041C284.597,323.38,271.646,330.77,257.171,334.25z M300.663,306.86
        c-0.446-0.24-0.889-0.482-1.346-0.718c-7.336-3.785-15.738-6.805-24.845-8.988c2.72-11.304,4.289-23.881,4.564-36.975h39.629
        C317.761,277.845,311.158,294.004,300.663,306.86z M318.665,251.819h-39.629c-0.275-13.094-1.844-25.671-4.564-36.975
        c9.106-2.184,17.508-5.203,24.845-8.988c0.457-0.236,0.901-0.477,1.346-0.718c4.501,5.514,8.279,11.637,11.206,18.224
        c-2.776,2.189-6.076,4.62-10.004,7.307c-6.608,4.521-2.069,1.937-10.351,6.677c-2.341,1.339-3.14,4.333-1.792,6.668
        c1.346,2.333,4.325,3.128,6.663,1.79c9.663-5.531,6.273-3.731,13.721-8.978c1.874-1.319,3.642-2.609,5.313-3.871
        C317.215,238.977,318.331,245.295,318.665,251.819z"/>
    <path style="fill:#FFF2E8;" d="M107.471,126.684V86.671c0-0.563,0.231-1.047,0.695-1.451c0.463-0.403,1.057-0.604,1.784-0.604
        h11.786c4.029,0,7.242,1.068,9.641,3.203c2.396,2.136,3.597,5.5,3.597,10.093v0.484c0,4.593-1.24,7.969-3.718,10.124
        c-2.478,2.156-5.773,3.234-9.882,3.234h-7.495v14.928c0,0.646-0.312,1.159-0.937,1.541c-0.625,0.384-1.38,0.574-2.267,0.574
        c-0.845,0-1.592-0.191-2.236-0.574C107.793,127.842,107.471,127.329,107.471,126.684z M113.878,106.677h7.495
        c2.296,0,4.069-0.655,5.319-1.965c1.248-1.309,1.873-3.273,1.873-5.893v-0.725c0-2.619-0.625-4.573-1.873-5.863
        c-1.25-1.289-3.022-1.935-5.319-1.935h-7.495C113.878,90.297,113.878,106.677,113.878,106.677z"/>
    <path style="fill:#FFF2E8;" d="M134.991,126.144c0-0.241,0.019-0.423,0.06-0.543l12.002-39.174
        c0.513-1.449,1.946-2.174,4.297-2.174c2.394,0,3.847,0.676,4.361,2.026l11.968,39.166c0.081,0.253,0.12,0.443,0.12,0.569
        c0,0.76-0.47,1.414-1.408,1.962c-0.94,0.549-1.935,0.822-2.988,0.822c-1.272,0-2.061-0.438-2.368-1.315l-2.503-8.658h-14.857
        l-2.473,8.635c-0.281,0.892-1.026,1.338-2.232,1.338c-0.966,0-1.869-0.261-2.715-0.784
        C135.413,127.492,134.991,126.868,134.991,126.144z M145.13,113.749h11.998l-6.06-20.743L145.13,113.749z"/>
    <path style="fill:#FFF2E8;" d="M169.846,122.151c0-0.765,0.281-1.531,0.846-2.297c0.563-0.765,1.208-1.148,1.934-1.148
        c0.443,0,0.976,0.259,1.601,0.776c0.624,0.516,1.239,1.073,1.844,1.673c0.604,0.599,1.52,1.157,2.75,1.674
        c1.229,0.516,2.608,0.774,4.14,0.774c2.296,0,4.14-0.547,5.531-1.64c1.389-1.093,2.084-2.695,2.084-4.801
        c0-1.944-0.675-3.564-2.024-4.861c-1.35-1.296-2.983-2.329-4.896-3.099c-1.914-0.77-3.838-1.6-5.773-2.492
        c-1.934-0.891-3.576-2.228-4.926-4.011c-1.35-1.782-2.024-4.011-2.024-6.684c0-2.13,0.413-3.981,1.239-5.548
        c0.825-1.568,1.944-2.774,3.354-3.618c1.411-0.844,2.891-1.458,4.443-1.839c1.55-0.381,3.192-0.573,4.925-0.573
        c1.088,0,2.226,0.07,3.415,0.21c1.188,0.14,2.366,0.368,3.535,0.688c1.169,0.319,2.135,0.777,2.901,1.375
        c0.765,0.598,1.148,1.275,1.148,2.032c0,0.758-0.243,1.52-0.726,2.29s-1.128,1.154-1.934,1.154c-0.404,0-0.947-0.192-1.632-0.577
        c-0.686-0.385-1.601-0.769-2.75-1.155c-1.148-0.385-2.469-0.577-3.959-0.577c-2.296,0-4.131,0.456-5.499,1.367
        c-1.371,0.913-2.056,2.299-2.056,4.163c0,1.216,0.363,2.259,1.088,3.13c0.726,0.87,1.663,1.59,2.81,2.157
        c1.148,0.567,2.427,1.124,3.838,1.672c1.41,0.547,2.81,1.185,4.2,1.913c1.39,0.729,2.659,1.57,3.808,2.523
        c1.148,0.952,2.085,2.259,2.811,3.919c0.725,1.661,1.087,3.586,1.087,5.774c0,4.164-1.259,7.337-3.778,9.518
        s-5.853,3.273-10.003,3.273c-3.708,0-6.861-0.776-9.459-2.327C171.145,125.406,169.846,123.803,169.846,122.151z"/>
    <path style="fill:#FFF2E8;" d="M200.792,122.151c0-0.765,0.281-1.531,0.846-2.297c0.563-0.765,1.208-1.148,1.934-1.148
        c0.443,0,0.976,0.259,1.601,0.776c0.624,0.516,1.239,1.073,1.844,1.673c0.604,0.599,1.52,1.157,2.75,1.674
        c1.229,0.516,2.608,0.774,4.14,0.774c2.296,0,4.14-0.547,5.531-1.64c1.389-1.093,2.084-2.695,2.084-4.801
        c0-1.944-0.675-3.564-2.024-4.861c-1.35-1.296-2.983-2.329-4.896-3.099c-1.914-0.77-3.838-1.6-5.773-2.492
        c-1.934-0.891-3.576-2.228-4.926-4.011c-1.35-1.782-2.024-4.011-2.024-6.684c0-2.13,0.413-3.981,1.239-5.548
        c0.825-1.568,1.944-2.774,3.354-3.618s2.891-1.458,4.443-1.839c1.55-0.381,3.192-0.573,4.925-0.573c1.088,0,2.226,0.07,3.415,0.21
        c1.188,0.14,2.366,0.368,3.535,0.688c1.169,0.319,2.135,0.777,2.901,1.375c0.765,0.598,1.148,1.275,1.148,2.032
        c0,0.758-0.243,1.52-0.726,2.29c-0.483,0.77-1.128,1.154-1.934,1.154c-0.404,0-0.947-0.192-1.632-0.577
        c-0.686-0.385-1.601-0.769-2.75-1.155c-1.148-0.385-2.469-0.577-3.959-0.577c-2.296,0-4.131,0.456-5.499,1.367
        c-1.371,0.913-2.056,2.299-2.056,4.163c0,1.216,0.363,2.259,1.088,3.13c0.726,0.87,1.663,1.59,2.81,2.157
        c1.148,0.567,2.427,1.124,3.838,1.672c1.41,0.547,2.81,1.185,4.2,1.913c1.39,0.729,2.659,1.57,3.808,2.523
        c1.148,0.952,2.085,2.259,2.811,3.919c0.725,1.661,1.087,3.586,1.087,5.774c0,4.164-1.259,7.337-3.778,9.518
        s-5.853,3.273-10.003,3.273c-3.708,0-6.861-0.776-9.459-2.327C202.091,125.406,200.792,123.803,200.792,122.151z"/>
    <path style="fill:#FFF2E8;" d="M233.974,126.684V86.671c0-0.563,0.231-1.047,0.695-1.451c0.463-0.403,1.057-0.604,1.784-0.604
        h11.786c4.029,0,7.242,1.068,9.641,3.203c2.396,2.136,3.597,5.5,3.597,10.093v0.484c0,4.593-1.24,7.969-3.717,10.124
        c-2.478,2.156-5.773,3.234-9.882,3.234h-7.495v14.928c0,0.646-0.312,1.159-0.937,1.541c-0.625,0.384-1.38,0.574-2.267,0.574
        c-0.845,0-1.592-0.191-2.236-0.574C234.297,127.842,233.974,127.329,233.974,126.684z M240.381,106.677h7.495
        c2.296,0,4.069-0.655,5.319-1.965c1.248-1.309,1.873-3.273,1.873-5.893v-0.725c0-2.619-0.625-4.573-1.873-5.863
        c-1.25-1.289-3.022-1.935-5.319-1.935h-7.495V106.677z"/>
    <path style="fill:#FFF2E8;" d="M266.493,115.683V98.095c0-4.633,1.229-8.039,3.686-10.215c2.458-2.175,5.742-3.264,9.853-3.264
        c4.111,0,7.404,1.088,9.883,3.264c2.478,2.177,3.716,5.582,3.716,10.215v17.588c0,4.634-1.239,8.039-3.716,10.215
        c-2.479,2.175-5.773,3.264-9.883,3.264c-4.11,0-7.395-1.088-9.853-3.264C267.721,123.722,266.493,120.318,266.493,115.683z
         M272.9,115.683c0,5.198,2.377,7.797,7.132,7.797c2.297,0,4.07-0.645,5.319-1.935c1.249-1.289,1.873-3.243,1.873-5.863V98.095
        c0-2.619-0.624-4.573-1.873-5.863c-1.249-1.289-3.021-1.935-5.319-1.935c-4.755,0-7.132,2.599-7.132,7.797V115.683z"/>
    <path style="fill:#FFF2E8;" d="M301.125,126.684V86.671c0-0.563,0.202-1.047,0.605-1.451c0.403-0.403,0.907-0.604,1.511-0.604
        h11.483c9.267,0,13.902,4.11,13.902,12.33c0,3.411-0.766,6.09-2.297,8.034c-1.532,1.947-3.606,3.241-6.224,3.883l8.462,15.933
        c0.16,0.283,0.242,0.585,0.242,0.909c0,0.808-0.414,1.556-1.239,2.244c-0.827,0.688-1.704,1.03-2.629,1.03
        c-1.048,0-1.895-0.626-2.539-1.879l-8.824-17.342h-6.105v16.917c0,0.647-0.312,1.163-0.937,1.546
        c-0.625,0.383-1.381,0.576-2.267,0.576c-0.845,0-1.582-0.191-2.207-0.574C301.437,127.842,301.125,127.329,301.125,126.684z
         M307.472,104.683h7.252c4.997,0,7.495-2.396,7.495-7.192c0-4.795-2.499-7.193-7.495-7.193h-7.252V104.683z"/>
    <path style="fill:#FFF2E8;" d="M331.226,87.548c0-0.773,0.182-1.456,0.544-2.046c0.362-0.59,0.885-0.885,1.571-0.885h25.083
        c0.684,0,1.208,0.285,1.571,0.854c0.362,0.57,0.544,1.242,0.544,2.016c0,0.856-0.192,1.578-0.574,2.168s-0.897,0.885-1.541,0.885
        h-9.308v36.148c0,0.644-0.322,1.157-0.967,1.538c-0.645,0.382-1.39,0.573-2.237,0.573c-0.886,0-1.642-0.191-2.267-0.573
        c-0.624-0.381-0.937-0.895-0.937-1.538V90.539h-9.368c-0.645,0-1.159-0.295-1.542-0.885
        C331.415,89.064,331.226,88.362,331.226,87.548z"/>
    <path style="fill:#FFF2E8;" d="M193.132,409.326h78.601c2.632,0,4.767,2.134,4.767,4.767v8.888c0,2.632-2.134,4.767-4.767,4.767
        h-78.601c-2.632,0-4.767-2.134-4.767-4.767v-8.888C188.367,411.46,190.5,409.326,193.132,409.326z"/>
    <path style="fill:#FFF2E8;" d="M160.193,373.714h144.481c2.266,0,4.102,1.837,4.102,4.102v10.215c0,2.266-1.837,4.102-4.102,4.102
        H160.193c-2.266,0-4.102-1.837-4.102-4.102v-10.215C156.091,375.551,157.927,373.714,160.193,373.714z"/>
</g>
<g>
</g>
</svg>
