<?xml version="1.0" encoding="iso-8859-1"?>
<!-- Generator: Adobe Illustrator 19.0.0, SVG Export Plug-In . SVG Version: 6.00 Build 0)  -->
<svg transform="scale(0.8)" xmlns="http://www.w3.org/2000/svg" 
xmlns:xlink="http://www.w3.org/1999/xlink" 
version="1.1" id="Layer_1" x="0px" y="0px" 
viewBox="0 0 512.002 512.002" 
style="enable-background:new 0 0 512.002 512.002;" 
xml:space="preserve" width="60" height="60">
<g id="XMLID_1470_">
    <g id="XMLID_905_">
        <path id="XMLID_1328_" style="fill:#D39979;" d="M497.818,14.18c46.291,46.291-24.454,192.084-158.005,325.634    S60.47,544.11,14.179,497.819c-25.223-25.223-15.687-80.01,19.842-146.25c8.593-16.047,18.732-32.765,30.254-49.892l0.01-0.01    c9.595-14.285,20.163-28.843,31.646-43.537c12.349-15.833,25.749-31.84,40.102-47.809c11.454-12.758,23.53-25.496,36.161-38.127    c1.226-1.226,2.452-2.452,3.688-3.669c16.426-16.251,33.008-31.548,49.571-45.795c16.66-14.344,33.281-27.617,49.658-39.713    c22.245-16.426,44.014-30.702,64.8-42.554C411.347-0.281,471.125-12.513,497.818,14.18z"/>
        <g id="XMLID_1214_">
            <path id="XMLID_1305_" style="fill:#A24223;" d="M376.927,76.527c-3.163,14.879-17.798,24.377-32.687,21.204l-69.13-14.714     c22.245-16.426,44.014-30.702,64.8-42.554l15.803,3.367C370.602,47.003,380.1,61.639,376.927,76.527z"/>
        </g>
        <g id="XMLID_1207_">
            <path id="XMLID_1217_" style="fill:#A24223;" d="M289.016,164.439c-3.163,14.879-17.798,24.377-32.687,21.204l-80.448-17.117     c16.426-16.251,33.008-31.548,49.571-45.795l42.35,9.011C282.691,134.914,292.189,149.55,289.016,164.439z"/>
        </g>
        <g id="XMLID_1016_">
            <path id="XMLID_1216_" style="fill:#A24223;" d="M201.105,252.35c-3.163,14.879-17.798,24.377-32.687,21.204L95.93,258.131     c12.349-15.833,25.749-31.84,40.102-47.809l43.858,9.332C194.78,222.826,204.277,237.462,201.105,252.35z"/>
        </g>
        <g id="XMLID_912_">
            <path id="XMLID_1215_" style="fill:#A24223;" d="M113.193,340.262c-3.163,14.879-17.798,24.377-32.687,21.204l-46.486-9.897     c8.593-16.047,18.732-32.765,30.254-49.892l0.01-0.01l27.695,5.897C106.868,310.737,116.366,325.373,113.193,340.262z"/>
        </g>
        <path id="XMLID_1275_" style="fill:#B96340;" d="M497.817,14.182c46.29,46.29-24.452,192.077-158.003,325.629    S60.469,544.109,14.179,497.819C7.02,490.66,2.658,481.12,0.909,469.608c62.887,9.631,184.529-58.386,297.423-171.279    S479.237,63.798,469.605,0.911C481.118,2.661,490.658,7.023,497.817,14.182z"/>
        <path id="XMLID_1241_" style="fill:#A24223;" d="M497.817,14.182c46.29,46.29-24.452,192.077-158.003,325.629    S60.469,544.109,14.179,497.819c-2.382-2.382-4.453-5.025-6.224-7.917c53.324,32.644,191.039-37.53,317.73-164.221    C452.37,198.996,522.539,61.299,489.9,7.969C492.798,9.735,495.435,11.799,497.817,14.182z"/>
    </g>
    <path id="XMLID_1471_" style="fill:#B96340;" d="M268.557,231.935c-4.267,0-7.726-3.459-7.726-7.726v-0.966   c0-4.267,3.459-7.726,7.726-7.726s7.726,3.459,7.726,7.726v0.966C276.284,228.475,272.825,231.935,268.557,231.935z"/>
    <path id="XMLID_1475_" style="fill:#B96340;" d="M275.11,281.892c-4.267,0-7.726-3.459-7.726-7.726v-0.966   c0-4.267,3.459-7.726,7.726-7.726s7.726,3.459,7.726,7.726v0.966C282.837,278.432,279.377,281.892,275.11,281.892z"/>
    <path id="XMLID_1472_" style="fill:#B96340;" d="M57.769,413.104c-4.267,0-7.726-3.459-7.726-7.726v-0.966   c0-4.267,3.459-7.726,7.726-7.726s7.726,3.459,7.726,7.726v0.966C65.496,409.645,62.036,413.104,57.769,413.104z"/>
    <path id="XMLID_1473_" style="fill:#B96340;" d="M414.651,59.687c-4.267,0-7.726-3.459-7.726-7.726v-0.966   c0-4.267,3.459-7.726,7.726-7.726s7.726,3.459,7.726,7.726v0.966C422.377,56.228,418.918,59.687,414.651,59.687z"/>
    <path id="XMLID_1408_" style="fill:#B96340;" d="M145.147,309.717c-4.267,0-7.726-3.459-7.726-7.726v-0.966   c0-4.267,3.459-7.726,7.726-7.726s7.726,3.459,7.726,7.726v0.966C152.874,306.258,149.415,309.717,145.147,309.717z"/>
    <path id="XMLID_1106_" style="fill:#B96340;" d="M167.181,333.716c-4.267,0-7.726-3.459-7.726-7.726v-0.966   c0-4.267,3.459-7.726,7.726-7.726s7.726,3.459,7.726,7.726v0.966C174.908,330.257,171.448,333.716,167.181,333.716z"/>
</g>















</svg>
