<?xml version="1.0" encoding="iso-8859-1"?>
<!-- Generator: Adobe Illustrator 19.0.0, SVG Export Plug-In . SVG Version: 6.00 Build 0)  -->
<svg version="1.1" id="Capa_1" xmlns="http://www.w3.org/2000/svg" xmlns:xlink="http://www.w3.org/1999/xlink" x="0px" y="0px"
     viewBox="0 0 512 512" style="enable-background:new 0 0 512 512;" xml:space="preserve">
<g>
    <path style="fill:#E9E3D5;" d="M448.37,211.621c-13.024,0-26.049-4.857-35.965-14.57c-3.003-2.941-3.053-7.761-0.111-10.764
        c2.941-3.003,7.761-3.053,10.764-0.111c13.957,13.673,36.667,13.672,50.624,0c8.756-8.579,13.579-19.973,13.579-32.082
        s-4.823-23.503-13.579-32.082c-23.466-22.988-61.625-23.009-85.064-0.048c-3.003,2.941-7.823,2.892-10.764-0.111
        c-2.942-3.003-2.892-7.823,0.111-10.764c29.313-28.717,77.031-28.696,106.37,0.048c11.703,11.465,18.149,26.72,18.149,42.955
        c0,16.236-6.445,31.491-18.149,42.957C474.419,206.765,461.394,211.621,448.37,211.621z"/>
    <path style="fill:#E9E3D5;" d="M383.287,123.982c-1.711,0-3.431-0.573-4.852-1.751c-3.237-2.682-3.687-7.481-1.006-10.717
        c0.602-0.727,14.81-17.872,19.949-23.604c7.064-7.879,7.124-17.712,0.15-25.049c-2.347-2.47-5.439-3.829-8.703-3.829
        s-6.356,1.36-8.702,3.829c-3.5,3.682-3.5,7.738,0,11.42c2.896,3.047,2.774,7.865-0.273,10.761
        c-3.047,2.895-7.865,2.774-10.762-0.273c-9.065-9.538-9.065-22.859,0-32.396c5.249-5.523,12.259-8.564,19.736-8.564
        c7.479,0,14.488,3.042,19.738,8.564c12.46,13.108,12.521,31.9,0.15,45.698c-4.941,5.512-19.415,22.978-19.562,23.153
        C387.647,123.042,385.474,123.982,383.287,123.982z"/>
    <path style="fill:#E9E3D5;" d="M412.924,31.571c-4.204,0-7.611-3.408-7.611-7.611c0-6.27-5.236-9.902-5.287-9.937
        c-3.541-2.266-4.573-6.974-2.307-10.514c2.266-3.54,6.973-4.574,10.514-2.307c4.57,2.925,12.304,11.01,12.304,22.757
        C420.536,28.163,417.128,31.571,412.924,31.571z"/>
    <path style="fill:#E9E3D5;" d="M383.152,33.153c-1.815,0-3.634-0.644-5.09-1.954c-0.672-0.604-3.227-1.318-5.16-1.442
        c-4.178-0.267-7.379-3.861-7.136-8.04c0.244-4.18,3.813-7.366,7.977-7.16c1.522,0.08,9.376,0.714,14.501,5.327
        c3.125,2.812,3.378,7.625,0.566,10.749C387.309,32.304,385.235,33.153,383.152,33.153z"/>
    <path style="fill:#E9E3D5;" d="M504.395,119.531c-2.44,0-4.837-1.171-6.308-3.343c-0.537-0.793-3.06-2.153-4.624-2.627
        c-4.022-1.224-6.291-5.475-5.068-9.497c1.223-4.021,5.473-6.291,9.497-5.068c1.458,0.445,8.931,2.945,12.797,8.654
        c2.358,3.481,1.447,8.213-2.033,10.571C507.35,119.107,505.865,119.531,504.395,119.531z"/>
</g>
<path style="fill:#46732f;" d="M203.983,221.575c-37.867,14.617-72.323,36.981-101.096,65.752L10.81,379.404
    c-14.413,14.413-14.413,37.78,0,52.194l69.591,69.591c14.413,14.413,37.78,14.413,52.194,0l92.077-92.077
    c28.771-28.771,51.135-63.228,65.752-101.096L273.3,238.698L203.983,221.575z"/>
<path style="fill:#46732f;" d="M273.385,288.021c-12.787,38.363-34.372,74.456-64.855,104.943c-0.001,0.001-0.003,0.002-0.004,0.003
    l-92.078,92.078c-5.5,5.499-14.4,5.5-19.901-0.001l-69.591-69.591c-7.172-7.172-17.925-8.564-26.5-4.2
    c1.169,7.448,4.615,14.608,10.353,20.346L80.4,501.19c14.413,14.413,37.78,14.413,52.194,0l92.077-92.077
    c28.771-28.772,51.135-63.228,65.752-101.096l-9.783-39.6c-2.596,6.368-5.018,12.889-7.25,19.586
    C273.389,288.009,273.387,288.014,273.385,288.021z"/>
<path style="fill:#FFCF5D;" d="M295.049,295.242c14.302-42.906,38.396-81.891,70.376-113.87l12.265-12.265
    c-5.044-5.044-29.75-29.75-34.796-34.796l-12.265,12.265c-31.979,31.979-70.965,56.073-113.87,70.376
    c-4.303,1.435-8.554,2.994-12.775,4.623c3.804,3.804,82.658,82.658,86.442,86.442C292.054,303.797,293.614,299.545,295.049,295.242z
    "/>
<g>
    <path style="fill:#FFB545;" d="M412.484,134.312c-5.044-5.044-29.75-29.75-34.796-34.796c-2.402-2.402-6.297-2.402-8.699,0
        l-34.796,34.796c-2.402,2.402-2.402,6.297,0,8.699c5.044,5.044,29.75,29.75,34.796,34.796c2.402,2.402,6.296,2.402,8.699,0
        l34.796-34.796C414.886,140.609,414.886,136.714,412.484,134.312z"/>
    <path style="fill:#FFB545;" d="M412.484,134.312c-1.807-1.807-6.141-6.142-11.187-11.187c-3.742,2.107-2.385,1.166-33.081,31.861
        c-5.559,0.187-10.994,2.384-15.374,6.675l0,0l0,0c-41.656,41.662-64.143,81.663-80.221,128.552
        c9.671,9.67,16.735,16.735,17.805,17.804c9.291-24.074,20.921-72.568,78.564-130.21c2.402,2.402,6.296,2.402,8.698,0l34.796-34.796
        C414.886,140.609,414.886,136.714,412.484,134.312z"/>
</g>
<path style="fill:#FFF9EB;" d="M195.861,363.376l-31.491-31.491l-15.746-15.746c-8.696-8.696-22.795-8.696-31.491,0l-63.679,63.679
    c-8.696,8.696-8.696,22.795,0,31.491l15.746,15.746l31.491,31.491c8.696,8.696,22.795,8.696,31.491,0l63.679-63.679
    C204.557,386.171,204.557,372.072,195.861,363.376z"/>
<circle style="fill:#FF983B;" cx="247.202" cy="264.798" r="25.372"/>
<path style="fill:#CE795F;" d="M472.285,16.842l-24.507,27.188c-2.935,3.483-2.479,8.687,1.016,11.607l10.833,9.052
    c3.474,2.903,8.642,2.451,11.559-1.011l24.552-27.24L472.285,16.842z"/>
<path style="fill:#A05A4B;" d="M474.172,38.317c-10.192-8.516-13.451-19.607-7.75-26.372c5.702-6.765,17.237-5.496,27.428,3.02
    c10.191,8.516,13.451,19.607,7.749,26.372C495.898,48.102,484.363,46.832,474.172,38.317z"/>
<g>
</g>
<g>
</g>
<g>
</g>
<g>
</g>
<g>
</g>
<g>
</g>
<g>
</g>
<g>
</g>
<g>
</g>
<g>
</g>
<g>
</g>
<g>
</g>
<g>
</g>
<g>
</g>
<g>
</g>
</svg>

<!-- <svg xmlns="http://www.w3.org/2000/svg" viewBox="0 0 64 64">
    <path fill="#b2c1c0" d="M18.3 26.8s1.7-2.2 5.6-3.2c3.1-.9 2.3-3.7 3.8-5.2l1.3 4.2-1 4.2.6 1.5s-1.7-1.2-2.4-1.3c-2.6-.3-7.5.2-7.9-.2"/>
    <path fill="#3e4347" d="M18.3 26.8s1.7-2.2 5.6-3.2c3.1-.9 2.3-3.7 3.8-5.2l1.3 4.2-1 4.2.6 1.5s-1.7-1.2-2.4-1.3c-2.6-.3-7.5.2-7.9-.2"/>
    <path fill="#46732f" d="M38.3 30.7c-6.2-2.6-6.7-2.9-8.6-4.8l-1.2-2.6c-.3-.3-.3-1.1-.9-1.7-.6-.6-2.8-1.3-3.4-2 0 0 .2-.4-.1-.7-.3-.3-1.3.3-2.9 2-1.6 1.6-2.3 2.6-2 2.9.3.3.7.1.7.1.6.6 1.4 2.8 2 3.4.6.6 1.4.6 1.7.9l2.6 1.2c1.9 1.9 2.1 2.4 4.7 8.7 2.2 5.3 3.6 11.1 6.9 16 1.9 2.9 5.3 6.5 9.2 7.7.6.2 1.8.5 2.6-.3l11.8-11.9c.8-.8.5-2.1.3-2.7-1.1-3.8-4.8-7.3-7.6-9.3-4.7-3.3-10.6-4.7-15.8-6.9"/>
    <path fill="#ffe791" d="M39.9 31.3c-.5-.2-1.1-.4-1.7-.7-6.1-2.6-9.2-6.8-9.2-6.8l-1 2.7.7 1.9-1.4-1-3.6.8s4.5 3.4 7.3 9.9c.2.6.4 1.1.7 1.6l1.7-1.7.7 1.7 2.7-1.8 1.1-.3.3-1.1 1.8-2.7-1.7-.7 1.6-1.8"/>
    <path fill="#3e4347" d="M28.7 28.4s-2.4-2.1-5.1-.2l1.7 1.5c.9-.6 2.3-1 3.9-.7 0 0-.6-2.1.9-3.9l-.9-1c-.6.7-1.8 2.9-.5 4.3" opacity=".5"/>
    <g fill="#ffe791">
        <path d="M25.9 26.3c-.8-.4-2.4-.3-3.9.4 0 0 0-.8-.6-.8-.5-.1-2.1.8-3.2.9 0 0 .7.9.6 1.7-.1.8 1.6-.9 2.4-1.1 0 0-.3 1.1-.4 2.2-.1 1 6-3 7.8-1.2.1 0-1.5-1.6-2.7-2.1M28.7 28.4s-1.4-1.4-1.1-3.9c0 0 1.2-.4.8-.8-.4-.4-1.6.4-1.4-1.4.2-1.8 1-2.6.7-3.9 0 0 1.7-.3 1.9 1 .1 1.3-.5 2.5.2 2.4 1-.1 2.1.5.5 2.1-1.7 1.6-2.2 3.2-1.6 4.5M59.7 45.5l-14 14c-2.5-1.6-4.6-3.7-6.2-6.2l14-14C56 41 58 43 59.7 45.5"/>
    </g>
    <g fill="#ede2d1">
        <path d="M18.5 22.7c.2-1.2-7.9-.7-10.4-.3-5.1.7-4.5 6.7.2 3.5 4.3-2.9 10.2-2.9 10.2-3.2M24.2 12.5c.2.3 4.3-8 2.9-7.5-1.1.6-3 7.2-2.9 7.5M21.2 20.4c.3-1.1-5.5-17.4-7.1-18.2-1.6-.8-3.9.7 2.6 10.9 2.8 4.4 3.9 9.3 4.5 7.3M16.9 24.3c-1.9.4-5.1 3.7-3.4 3 1.7-.6 4.6-3.3 3.4-3M23.1 18.3c1.3-1.2 4.4-4.6 2.8-4.1-1.4.3-4.1 5.3-2.8 4.1M21.8 8.3c-1 1.2-.7 7.7.1 9.8.8 2.2.8-11.1-.1-9.8M11.6 20.3c3.9-1.9-11.5-2.2-9.4-.4 2.1 1.8 7.6 1.2 9.4.4"/>
        <ellipse cx="9.2" cy="27.7" rx="1.3" ry=".9" transform="rotate(-21.956 9.231 27.669)"/>
        <ellipse cx="26.2" cy="11.6" rx=".8" ry=".5" transform="rotate(-48.523 26.177 11.602)"/>
        <ellipse cx="12.3" cy="28.7" rx="1" ry=".7" transform="rotate(-35.217 12.332 28.66)"/>
        <ellipse cx="19.1" cy="4.8" rx="1.1" ry="1.6" transform="rotate(-20.022 19.065 4.78)"/>
        <ellipse cx="24" cy="6.3" rx=".5" ry=".8" transform="rotate(-10.857 23.95 6.34)"/>
    </g>
    <path fill="#d3976e" d="M8.9 10.1l-2.3 3.5c-.7 1.1-.4 2.6.7 3.4l1 .7c.8.6 1.9.5 2.7 0l2.2 1.5c1.1.7 2.6.4 3.4-.7l.7-1c.7-1.1.4-2.6-.7-3.4l-2.2-1.5c.2-.9-.2-2-1-2.5l-1-.7c-1.3-.7-2.8-.4-3.5.7"/>
    <path fill="#89664c" d="M8.9 10.1s1.3-.8 2.6.1c.4.2.7.5 1 .7.2.2.8 1-.3 2.7-1.3 2-1.5 3.3-1.5 3.3s1.9-3.8 4-2.7c1.5.8 3.4 1.9 1.9 4.2l.7-1c.7-1.1.4-2.6-.7-3.4l-2.2-1.5c.2-.9-.2-2-1-2.5l-1-.7c-1.3-.6-2.8-.3-3.5.8"/>
</svg>
 -->