<?xml version="1.0" encoding="iso-8859-1"?>
<!-- Generator: Adobe Illustrator 19.0.0, SVG Export Plug-In . SVG Version: 6.00 Build 0)  -->
<svg version="1.1" id="Capa_1" xmlns="http://www.w3.org/2000/svg" xmlns:xlink="http://www.w3.org/1999/xlink" x="0px" y="0px"
	 viewBox="0 0 512 512" style="enable-background:new 0 0 512 512;" xml:space="preserve">
<path style="fill:#FCCA00;" d="M485.662,426.176H26.334C11.791,426.176,0,414.386,0,399.842V112.158
	c0-14.544,11.791-26.333,26.334-26.333h459.329c14.544,0,26.334,11.791,26.334,26.334v287.685
	C511.997,414.386,500.206,426.176,485.662,426.176z"/>
<rect x="0.003" y="147.204" style="fill:#241122;" width="511.997" height="67.396"/>
<g>
	<polygon style="fill:#2C2A38;" points="359.968,147.201 314.724,214.597 218.594,214.597 263.838,147.201 	"/>
	<polygon style="fill:#2C2A38;" points="450.79,147.201 405.546,214.597 348.161,214.597 393.405,147.201 	"/>
</g>
<path style="fill:#FEFFFF;" d="M420.808,375.602H91.189c-5.504,0-9.967-4.463-9.967-9.967v-77.958c0-5.504,4.463-9.967,9.967-9.967
	h329.619c5.504,0,9.967,4.463,9.967,9.967v77.958C430.775,371.139,426.313,375.602,420.808,375.602z"/>
<path style="fill:#058191;" d="M372.328,337.511l-12.147,2.527c-4.055,0.821-8.076,1.751-12.116,2.623l-8.712,1.918
	c-0.243-0.229-0.483-0.463-0.732-0.685c-0.944-0.834-1.866-1.689-2.78-2.553l-5.43-5.24c-1.259-1.196-3.108-1.773-4.92-1.329
	l-20.5,5.019l-2.402-11.499c-0.193-0.911-0.634-1.803-1.318-2.533c-1.995-2.125-5.335-2.232-7.461-0.237l-20.432,19.174
	l-9.858-21.717c-0.631-1.372-1.853-2.486-3.423-2.912c-2.813-0.764-5.713,0.898-6.477,3.71l-0.004,0.017
	c-1.045,3.85-2.645,7.454-4.787,10.675c-2.18,3.191-4.893,6.01-8.096,8.304c-6.376,4.652-14.416,7.311-22.721,8.639
	c-4.163,0.673-8.424,1.005-12.703,1.094c-2.141,0.036-4.287,0.009-6.43-0.082l-0.402-0.016c-0.145-0.005-0.153-0.019-0.235-0.024
	c-0.127-0.023-0.267-0.003-0.387-0.045c-0.255-0.039-0.489-0.113-0.724-0.181c-0.456-0.163-0.853-0.408-1.164-0.684
	c-0.634-0.581-0.846-1.176-0.809-1.704c0.004-0.071,0.032-0.145,0.029-0.219c-0.016,0.025,0.045-0.251,0.054-0.295
	c0.012-0.028,0.008-0.059,0.022-0.087c0.033-0.116,0.083-0.239,0.156-0.374c0.149-0.267,0.413-0.575,0.783-0.852l2.81-2.02
	c0.974-0.821,1.986-1.573,2.919-2.464c1.907-1.715,3.653-3.683,5.24-5.81c1.536-2.18,2.87-4.552,3.871-7.103
	c0.988-2.556,1.596-5.279,1.829-8.013c0.47-5.492-0.653-10.962-2.853-15.757c-2.21-4.811-5.358-9.094-9.523-12.572
	c-2.096-1.726-4.459-3.272-7.377-4.314c-0.354-0.12-0.757-0.273-1.074-0.358l-0.949-0.254c-0.633-0.166-1.264-0.345-1.91-0.458
	c-1.281-0.286-2.577-0.484-3.878-0.692c-2.606-0.377-5.285-0.335-7.866,0.214c-2.583,0.508-5.092,1.288-7.472,2.329
	c-4.756,2.083-8.975,5.289-12.12,9.289c-3.127,4.013-5.061,8.884-5.399,13.741c-0.356,4.879,0.951,9.567,3.045,13.566
	c-0.95-4.436-1.039-8.963,0.273-12.978c1.219-4.023,3.65-7.449,6.718-9.955c3.04-2.55,6.7-4.21,10.446-5.065
	c1.881-0.414,3.791-0.612,5.679-0.608c1.891,0.044,3.735,0.057,5.61,0.115c0.933,0.073,1.868,0.167,2.787,0.373
	c0.464,0.074,0.915,0.21,1.371,0.329l0.682,0.179c0.226,0.06,0.345,0.124,0.525,0.181c1.334,0.459,2.83,1.37,4.192,2.51
	c2.756,2.286,5.096,5.421,6.626,8.788c1.553,3.376,2.25,7.029,1.949,10.515c-0.153,1.744-0.526,3.46-1.161,5.104
	c-0.65,1.64-1.531,3.214-2.58,4.719c-1.115,1.472-2.351,2.897-3.797,4.191c-0.69,0.67-1.499,1.253-2.237,1.891l-2.675,1.918
	c-1.432,1.067-2.727,2.45-3.682,4.146c-0.475,0.847-0.862,1.769-1.13,2.738c-0.071,0.239-0.122,0.488-0.179,0.734
	c-0.047,0.231-0.053,0.23-0.101,0.534c-0.072,0.483-0.153,0.964-0.184,1.453c-0.136,1.965,0.234,3.985,1.016,5.753
	c0.778,1.775,1.939,3.308,3.306,4.525c1.37,1.219,2.948,2.137,4.611,2.734c0.835,0.283,1.682,0.517,2.541,0.657
	c0.428,0.094,0.857,0.11,1.287,0.158l0.605,0.047l0.441,0.018c2.354,0.099,4.71,0.129,7.07,0.089
	c4.72-0.098,9.456-0.463,14.182-1.225c4.724-0.751,9.439-1.911,14.049-3.585c4.596-1.708,9.101-3.942,13.2-6.934
	c4.115-2.948,7.762-6.698,10.646-10.942c0.456-0.681,0.883-1.377,1.299-2.081l7.932,17.476c0.232,0.505,0.556,1.002,0.957,1.43
	c1.995,2.125,5.335,2.232,7.461,0.237l18.948-17.782l1.597,7.642c0.01,0.051,0.027,0.124,0.04,0.176
	c0.693,2.832,3.551,4.564,6.382,3.871l22.978-5.625l3.337,3.219c0.895,0.883,1.783,1.775,2.65,2.689
	c0.87,0.909,1.778,1.78,2.755,2.578l0.736,0.602c1.253,1.019,3.017,1.319,4.598,0.628l11.357-4.958
	c3.78-1.67,7.579-3.282,11.342-5.002l11.311-5.097c3.754-1.75,7.523-3.452,11.264-5.245
	C380.444,335.881,376.394,336.72,372.328,337.511z"/>
<g>
</g>
<g>
</g>
<g>
</g>
<g>
</g>
<g>
</g>
<g>
</g>
<g>
</g>
<g>
</g>
<g>
</g>
<g>
</g>
<g>
</g>
<g>
</g>
<g>
</g>
<g>
</g>
<g>
</g>
</svg>
