<?xml version="1.0" encoding="iso-8859-1"?>
<!-- Generator: Adobe Illustrator 19.0.0, SVG Export Plug-In . SVG Version: 6.00 Build 0)  -->
<svg version="1.1" id="Capa_1" xmlns="http://www.w3.org/2000/svg" xmlns:xlink="http://www.w3.org/1999/xlink" x="0px" y="0px"
	 viewBox="0 0 512 512" style="enable-background:new 0 0 512 512;" xml:space="preserve">
<polygon style="fill:#008AC1;" points="164.457,156.125 124.037,132.177 171.116,107.007 235.794,110.87 231.886,144.118 "/>
<path style="fill:#E3E8EC;" d="M502.501,76.779c-28.8,27.024-60.55,50.746-94.771,70.479c-16.763,9.68-36.776,20.253-61.401,31.532
	L233.34,222.597c-28.696,9.565-61.017,19.38-97.555,29.351l-43.953,9.69c-11.736,0.602-23.223-4.393-30.794-13.689L0,172.973
	l16.264-8.693c10.656-5.691,23.597-4.944,33.505,1.942l16.358,11.362c18.653,12.962,43.257,13.481,62.44,1.309l261.735-166.06
	c18.248-11.58,41.097-13.273,60.861-4.518l11.798,5.234l18.051,8.008l13.107,5.816c6.481,2.867,11.3,7.613,14.301,13.211
	C514.507,51.988,513.022,66.902,502.501,76.779z"/>
<path style="fill:#D5D8DB;" d="M508.416,40.585c6.093,11.397,4.604,26.319-5.912,36.196c-28.804,27.023-60.551,50.741-94.772,70.479
	c-16.768,9.68-36.773,20.248-61.405,31.525L233.343,222.6c-28.695,9.564-61.017,19.373-97.562,29.353l-43.945,9.681
	c-11.739,0.603-23.23-4.392-30.795-13.689C221.855,228.072,521.058,63.887,494.12,27.369
	C500.605,30.244,505.425,34.989,508.416,40.585z"/>
<g>
	<path style="fill:#008AC1;" d="M481.013,21.557l-36.226,19.37c-1.163,0.623-2.42,0.914-3.666,0.914
		c-2.773,0-5.473-1.485-6.875-4.113c-2.025-3.791-0.592-8.516,3.199-10.542l25.518-13.637L481.013,21.557z"/>
	<polygon style="fill:#008AC1;" points="234.097,208.634 366.099,144.979 274.834,301.003 227.757,326.172 	"/>
	<polygon style="fill:#008AC1;" points="93.559,250.936 150.145,224.142 111.91,298.199 83.521,313.377 	"/>
	<path style="fill:#008AC1;" d="M169.228,206.155c-6.972,0-10.401-8.882-5.23-13.555c2.573-2.324,6.462-2.654,9.392-0.807
		c2.693,1.698,4.1,4.973,3.472,8.099C176.139,203.49,172.906,206.155,169.228,206.155z"/>
	<path style="fill:#008AC1;" d="M185.492,189.672c-2.607-4.878,0.774-11.038,6.298-11.439c5.533-0.402,9.78,5.196,7.898,10.416
		c-1.098,3.046-4.076,5.146-7.321,5.146C189.516,193.796,186.835,192.189,185.492,189.672z M208.632,177.304
		c-2.619-4.877,0.768-11.038,6.292-11.439c5.529-0.402,9.78,5.199,7.9,10.416c-1.098,3.045-4.071,5.146-7.316,5.146
		C212.655,181.426,209.974,179.819,208.632,177.304z M231.761,164.934c-2.605-4.876,0.776-11.038,6.298-11.439
		c5.533-0.402,9.78,5.196,7.898,10.416c-1.098,3.046-4.076,5.146-7.321,5.146C235.785,169.057,233.103,167.45,231.761,164.934z
		 M254.901,152.575c-2.613-4.88,0.763-11.047,6.296-11.449c5.528-0.402,9.774,5.203,7.895,10.416
		c-1.098,3.044-4.071,5.146-7.316,5.146C258.929,156.687,256.246,155.085,254.901,152.575z M278.031,140.195
		c-2.607-4.878,0.778-11.027,6.298-11.435c5.535-0.41,9.781,5.197,7.898,10.416c-1.099,3.046-4.078,5.143-7.321,5.143
		C282.057,144.317,279.371,142.708,278.031,140.195z M301.17,127.836c-2.613-4.88,0.763-11.047,6.296-11.45
		c5.528-0.402,9.776,5.206,7.895,10.42c-1.099,3.044-4.072,5.143-7.316,5.143C305.198,131.949,302.515,130.346,301.17,127.836z
		 M324.3,115.466c-2.601-4.882,0.77-11.036,6.298-11.445c5.535-0.41,9.781,5.197,7.898,10.416c-1.099,3.046-4.078,5.143-7.321,5.143
		C328.331,119.578,325.644,117.974,324.3,115.466z M347.44,103.096c-2.615-4.883,0.766-11.036,6.296-11.445
		c5.538-0.41,9.78,5.199,7.896,10.417c-1.102,3.052-4.065,5.141-7.317,5.141C351.467,107.208,348.785,105.607,347.44,103.096z
		 M370.569,90.726c-2.602-4.881,0.77-11.037,6.298-11.445c5.53-0.408,9.781,5.202,7.898,10.416c-1.1,3.046-4.077,5.142-7.321,5.142
		C374.6,94.84,371.912,93.234,370.569,90.726z"/>
	<path style="fill:#008AC1;" d="M400.574,82.47c-6.995,0-10.421-8.969-5.168-13.609c5.284-4.666,13.72-0.196,12.897,6.774
		C407.847,79.494,404.45,82.47,400.574,82.47z"/>
</g>
<rect x="3.091" y="397.987" style="fill:#7EB129;" width="508.909" height="111.243"/>
<rect x="3.091" y="424.211" style="fill:#C3C3CD;" width="508.909" height="58.795"/>
<g>
</g>
<g>
</g>
<g>
</g>
<g>
</g>
<g>
</g>
<g>
</g>
<g>
</g>
<g>
</g>
<g>
</g>
<g>
</g>
<g>
</g>
<g>
</g>
<g>
</g>
<g>
</g>
<g>
</g>
</svg>
