<?xml version="1.0" encoding="iso-8859-1"?>
<!-- Generator: Adobe Illustrator 19.0.0, SVG Export Plug-In . SVG Version: 6.00 Build 0)  -->
<svg version="1.1" id="Capa_1" xmlns="http://www.w3.org/2000/svg" xmlns:xlink="http://www.w3.org/1999/xlink" x="0px" y="0px"
	 viewBox="0 0 512 512" style="enable-background:new 0 0 512 512;" xml:space="preserve">
<path style="fill:#D7D7D7;" d="M238.01,357.32l-57.784-57.784L479.763,0l0,0c33.519,33.519,33.519,87.862,0,121.381L243.824,357.32
	C242.218,358.925,239.616,358.925,238.01,357.32z"/>
<g>
	<polygon style="fill:#D7D7D7;" points="401.394,78.368 387.64,92.123 387.64,213.504 401.394,199.748 	"/>
	<polygon style="fill:#D7D7D7;" points="337.826,263.317 365.335,235.808 365.335,114.428 337.826,141.938 	"/>
</g>
<path style="fill:#D7D7D7;" d="M247.117,313.053c-2.141,0-4.281-0.817-5.914-2.45c-3.267-3.266-3.267-8.563,0-11.829L438.668,101.31
	c12.205-12.206,19.309-28.421,20.002-45.655c0.186-4.616,4.085-8.203,8.693-8.022c4.615,0.185,8.206,4.078,8.022,8.693
	c-0.863,21.448-9.702,41.624-24.889,56.812L253.031,310.604C251.397,312.237,249.258,313.053,247.117,313.053z"/>
<path style="fill:#D7D7D7;" d="M41.823,510.797L8.302,477.274c-1.605-1.605-1.605-4.208,0-5.812l171.926-171.926l39.335,39.335
	L47.637,510.797C46.031,512.401,43.429,512.401,41.823,510.797z"/>
<path style="fill:#D7D7D7;" d="M180.227,299.536l-19.863,19.863l0,0c13.6,13.6,13.6,35.65,0,49.251L30.021,498.993l11.803,11.804
	c1.605,1.605,4.208,1.605,5.812,0l171.926-171.926L180.227,299.536z"/>
<g>
</g>
</svg>
