<?xml version="1.0" encoding="iso-8859-1"?>
<!-- Generator: Adobe Illustrator 19.0.0, SVG Export Plug-In . SVG Version: 6.00 Build 0)  -->
<svg transform="scale(0.9)" version="1.1" id="Capa_1" xmlns="http://www.w3.org/2000/svg" xmlns:xlink="http://www.w3.org/1999/xlink" x="0px" y="0px"
	 viewBox="0 0 512 512" style="enable-background:new 0 0 512 512;" xml:space="preserve">
<path style="fill:#D6D9E1;" d="M104.098,511.999c-3.85,0-7.701-1.468-10.637-4.407L4.406,418.538c-5.875-5.874-5.875-15.4,0-21.275
	L257.588,144.08c2.821-2.821,6.647-4.407,10.637-4.407s7.817,1.585,10.637,4.407l89.056,89.056
	c2.821,2.821,4.407,6.647,4.407,10.637s-1.585,7.817-4.407,10.637L114.736,507.592C111.799,510.53,107.949,511.999,104.098,511.999z
	"/>
<path style="fill:#636978;" d="M385.326,286.859c-3.864,0-7.715-1.481-10.64-4.407l-145.14-145.139
	c-5.545-5.545-5.901-14.42-0.816-20.391L323.785,5.29c2.723-3.197,6.658-5.111,10.853-5.279c4.177-0.153,8.27,1.426,11.239,4.395
	l161.716,161.716c2.97,2.969,4.562,7.044,4.395,11.239c-0.168,4.196-2.082,8.13-5.279,10.853L395.077,283.27
	C392.257,285.671,388.787,286.859,385.326,286.859z"/>
<path style="fill:#9C9FAA;" d="M367.919,233.136l-44.529-44.529L48.932,463.063l44.529,44.529c2.938,2.939,6.788,4.407,10.637,4.407
	c3.85,0,7.701-1.469,10.638-4.406l253.183-253.183c2.822-2.821,4.407-6.647,4.407-10.638
	C372.326,239.782,370.742,235.956,367.919,233.136z"/>
<path style="fill:#3b3b3b;" d="M507.594,166.121l-80.86-80.86L302.115,209.881l72.572,72.572c2.926,2.926,6.777,4.407,10.64,4.407
	c3.459,0,6.929-1.188,9.751-3.59l111.632-95.055c3.196-2.723,5.111-6.658,5.279-10.853
	C512.155,173.166,510.563,169.09,507.594,166.121z"/>
</svg>