<?xml version="1.0" encoding="iso-8859-1"?>
<!-- Generator: Adobe Illustrator 19.0.0, SVG Export Plug-In . SVG Version: 6.00 Build 0)  -->
<svg version="1.1" id="Capa_1" xmlns="http://www.w3.org/2000/svg" xmlns:xlink="http://www.w3.org/1999/xlink" x="0px" y="0px"
     viewBox="0 0 512 512" style="enable-background:new 0 0 512 512;" xml:space="preserve">
<path style="fill:#AC6A00;" d="M511.997,111.69c0-12.295-9.644-20.443-19.74-20.519h-62.671v329.658h53.954
    c14.98,0,27.743-12.021,28.426-27.556C512.014,392.165,511.997,113.628,511.997,111.69z"/>
<path style="fill:#ff0000;" d="M486.245,256.893c0,90.54-25.367,163.936-56.66,163.936s-56.66-73.396-56.66-163.936
    S398.293,91.17,429.585,91.17S486.245,166.353,486.245,256.893z"/>
<path style="fill:#ed0000;" d="M429.585,91.17c-7.191,0-14.068,4.116-20.398,11.186c3.834,7.047,11.25,13.44,19.822,13.647
    c2.977,1.445,12.289,11.044,20.834,38.964c8.527,27.859,13.222,64.057,13.222,101.926s-4.696,74.067-13.222,101.926
    c-8.545,27.92-17.857,37.519-20.834,38.964c-8.572,0.207-15.987,5.045-19.822,12.091c6.329,7.07,13.206,10.955,20.398,10.955
    c31.293,0,56.66-73.396,56.66-163.936S460.878,91.17,429.585,91.17z"/>
<path style="fill:#26af32;" d="M351.292,163.468v185.014c0,26.741,14.537,52.231,40.003,70.145
    c4.951,3.483,12.19,2.655,15.782-1.218c3.243-3.494,5.082-7.586,5.915-11.643c2.558-12.361-4.457-17.454-1.775-25.3
    c2.414-7.093,9.652-5.938,17.744-14.793c7.601-8.207,7.02-18.949-2.319-26.635c-5.951-4.905-4.883-12.029,2.471-16.13
    c15.44-8.583,16.945-24.092,3.251-33.829c-6.538-4.654-6.138-11.82,0.742-16.171c14.529-9.189,14.538-24.67,0.001-33.864
    c-6.912-4.371-7.251-11.538-0.743-16.171c13.693-9.737,12.191-25.245-3.25-33.829c-7.248-4.041-8.503-11.161-2.472-16.13
    c6.248-5.144,8.564-11.629,7.164-17.817c-1.934-8.399-10.968-14.554-15.097-16.464c-9.134-4.29-9.234-10.592-6.627-18.265
    c3.11-8.927,1.17-19.258-4.921-25.738c-3.896-4.143-11.26-4.546-15.866-1.306C365.242,111.648,351.292,137.347,351.292,163.468z"/>
<path style="fill:#AC6A00;" d="M360.56,91.184h-51.509L247.24,420.828c2.722,0,104.658,0,104.22,0
    c15.635,0,28.956-12.021,29.669-27.555c0.05-1.107,0.033-279.633,0.033-281.571C381.164,99.409,371.098,91.26,360.56,91.184z"/>
<path style="fill:#F3CC82;" d="M20.645,420.828h279.915c17.068,0,30.905-13.761,30.905-30.736V111.703
    c0-18.256-22.193-27.399-35.172-14.489L6.076,385.848C-6.903,398.757,2.289,420.828,20.645,420.828z"/>
<g>
    <circle style="fill:#E7AF62;" cx="86.02" cy="374.985" r="7.726"/>
    <circle style="fill:#E7AF62;" cx="116.925" cy="323.476" r="7.726"/>
    <circle style="fill:#E7AF62;" cx="158.133" cy="364.684" r="7.726"/>
    <circle style="fill:#E7AF62;" cx="178.736" cy="313.174" r="7.726"/>
    <circle style="fill:#E7AF62;" cx="147.831" cy="292.571" r="7.726"/>
    <circle style="fill:#E7AF62;" cx="219.943" cy="241.062" r="7.726"/>
    <circle style="fill:#E7AF62;" cx="250.849" cy="251.364" r="7.726"/>
    <circle style="fill:#E7AF62;" cx="230.245" cy="271.967" r="7.726"/>
    <circle style="fill:#E7AF62;" cx="281.754" cy="313.174" r="7.726"/>
    <circle style="fill:#E7AF62;" cx="240.547" cy="333.778" r="7.726"/>
    <circle style="fill:#E7AF62;" cx="292.056" cy="354.382" r="7.726"/>
    <circle style="fill:#E7AF62;" cx="312.66" cy="261.665" r="7.726"/>
    <circle style="fill:#E7AF62;" cx="240.547" cy="189.553" r="7.726"/>
    <circle style="fill:#E7AF62;" cx="302.358" cy="168.949" r="7.726"/>
    <circle style="fill:#E7AF62;" cx="240.547" cy="395.589" r="7.726"/>
    <circle style="fill:#E7AF62;" cx="116.925" cy="395.589" r="7.726"/>
</g>
</svg>