<?xml version="1.0" encoding="iso-8859-1"?>
<!-- Generator: Adobe Illustrator 19.0.0, SVG Export Plug-In . SVG Version: 6.00 Build 0)  -->
<svg version="1.1" id="Capa_1" xmlns="http://www.w3.org/2000/svg" xmlns:xlink="http://www.w3.org/1999/xlink" x="0px" y="0px"
     viewBox="0 0 512 512" style="enable-background:new 0 0 512 512;" xml:space="preserve">
<rect x="28.379" y="168.124" style="fill:#C6CAD5;" width="455.252" height="318.558"/>
<rect x="28.379" y="168.124" style="fill:#A3A8B2;" width="455.252" height="47.018"/>
<polyline style="fill:#B90000;" points="392.869,179.099 512,179.099 460.115,89.747 353.431,89.747 158.568,89.747 51.886,89.747 
    0,179.099 119.131,179.099 "/>
<polygon style="fill:#ECEDF2;" points="392.864,150.725 392.864,475.71 119.132,475.71 119.132,150.725 145.223,128.166 
    256.003,32.339 366.741,128.135 "/>
<polygon style="fill:#C6CAD5;" points="392.864,152.188 392.864,182.072 384.4,182.072 256.003,63.685 127.596,182.072 
    119.132,182.072 119.132,152.188 145.223,128.166 238.459,42.296 256.003,26.121 273.536,42.296 366.741,128.135 "/>
<rect x="180.767" y="343.395" style="fill:#CC773E;" width="150.455" height="150.455"/>
<rect x="180.767" y="343.395" style="fill:#B26029;" width="150.455" height="45.934"/>
<polygon style="fill:#D81616;" points="127.6,155.952 256,37.56 384.4,155.952 425.317,155.952 273.536,16.168 256,0 
    238.463,16.168 86.683,155.952 "/>
<circle style="fill:#A0D9F2;" cx="256" cy="165.376" r="54.335"/>
<g>
    <rect x="172.931" y="345.725" style="fill:#F9A03E;" width="15.673" height="142.681"/>
    <rect x="323.396" y="345.725" style="fill:#F9A03E;" width="15.673" height="142.681"/>
    <rect x="248.163" y="345.725" style="fill:#F9A03E;" width="15.673" height="142.681"/>
</g>
<g>
    <rect x="172.931" y="345.725" style="fill:#F48500;" width="15.673" height="31.765"/>
    <rect x="323.396" y="345.725" style="fill:#F48500;" width="15.673" height="31.765"/>
    <rect x="248.163" y="345.725" style="fill:#F48500;" width="15.673" height="31.765"/>
</g>
<path style="fill:#423E3E;" d="M255.998,227.545c-34.282,0-62.171-27.889-62.171-62.171s27.889-62.171,62.171-62.171
    s62.171,27.889,62.171,62.171S290.28,227.545,255.998,227.545z M255.998,118.876c-25.64,0-46.498,20.858-46.498,46.498
    s20.858,46.498,46.498,46.498s46.498-20.858,46.498-46.498S281.638,118.876,255.998,118.876z"/>
<path style="fill:#32303E;" d="M277.573,173.211h-21.574c-4.328,0-7.837-3.509-7.837-7.837v-32.279c0-4.328,3.509-7.837,7.837-7.837
    c4.328,0,7.837,3.509,7.837,7.837v24.442h13.737c4.328,0,7.837,3.509,7.837,7.837C285.41,169.702,281.901,173.211,277.573,173.211z"
    />
<polygon style="fill:#D81616;" points="256,358.416 371.61,358.416 256,290.148 140.391,358.416 "/>
<g>
    <rect x="28.379" y="240.713" style="fill:#A0D9F2;" width="54.857" height="68.96"/>
    <rect x="28.379" y="345.725" style="fill:#A0D9F2;" width="54.857" height="68.96"/>
    <rect x="428.774" y="240.713" style="fill:#A0D9F2;" width="54.857" height="68.96"/>
    <rect x="428.774" y="345.725" style="fill:#A0D9F2;" width="54.857" height="68.96"/>
</g>
<g>
    <path style="fill:#423E3E;" d="M83.231,317.513H28.377V301.84h47.018v-53.287H28.377V232.88h54.855
        c4.328,0,7.837,3.509,7.837,7.837v68.96C91.068,314.004,87.559,317.513,83.231,317.513z"/>
    <path style="fill:#423E3E;" d="M83.231,422.52H28.377v-15.673h47.018V353.56H28.377v-15.673h54.855
        c4.328,0,7.837,3.509,7.837,7.837v68.96C91.068,419.011,87.559,422.52,83.231,422.52z"/>
</g>
<g>
    <rect x="146.892" y="223.472" style="fill:#A0D9F2;" width="54.857" height="68.96"/>
    <rect x="310.251" y="223.472" style="fill:#A0D9F2;" width="54.857" height="68.96"/>
</g>
<g>
    <path style="fill:#423E3E;" d="M483.624,317.513h-54.855c-4.328,0-7.837-3.509-7.837-7.837v-68.96c0-4.328,3.509-7.837,7.837-7.837
        h54.855v15.673h-47.018v53.287h47.018L483.624,317.513L483.624,317.513z"/>
    <path style="fill:#423E3E;" d="M201.75,300.273h-54.855c-4.328,0-7.837-3.509-7.837-7.837v-68.96c0-4.328,3.509-7.837,7.837-7.837
        h54.855c4.328,0,7.837,3.509,7.837,7.837v68.96C209.587,296.765,206.078,300.273,201.75,300.273z M154.732,284.6h39.182v-53.287
        h-39.182V284.6z"/>
    <path style="fill:#423E3E;" d="M365.101,300.273h-54.855c-4.328,0-7.837-3.509-7.837-7.837v-68.96c0-4.328,3.509-7.837,7.837-7.837
        h54.855c4.328,0,7.837,3.509,7.837,7.837v68.96C372.938,296.765,369.429,300.273,365.101,300.273z M318.083,284.6h39.182v-53.287
        h-39.182L318.083,284.6L318.083,284.6z"/>
    <path style="fill:#423E3E;" d="M483.624,422.52h-54.855c-4.328,0-7.837-3.509-7.837-7.837v-68.96c0-4.328,3.509-7.837,7.837-7.837
        h54.855v15.673h-47.018v53.287h47.018L483.624,422.52L483.624,422.52z"/>
    <path style="fill:#423E3E;" d="M494.075,475.711H17.925C8.026,475.711,0,483.736,0,493.636V512h512v-18.364
        C512,483.736,503.974,475.711,494.075,475.711z"/>
</g>
</svg>