<?xml version="1.0" encoding="iso-8859-1"?>
<!-- Generator: Adobe Illustrator 19.0.0, SVG Export Plug-In . SVG Version: 6.00 Build 0)  -->
<svg version="1.1" id="Capa_1" xmlns="http://www.w3.org/2000/svg" xmlns:xlink="http://www.w3.org/1999/xlink" x="0px" y="0px"
	 viewBox="0 0 512 512" style="enable-background:new 0 0 512 512;" xml:space="preserve">
<path style="fill:#859093;" d="M392.954,512H119.046c-9.622,0-17.423-7.8-17.423-17.423V476.88l308.752-59.556v77.255
	C410.376,504.2,402.576,512,392.954,512z"/>
<path style="fill:#9EA9AD;" d="M410.008,476.88H101.994c-8.81,0-16.122-6.809-16.748-15.596L56.639,59.987l328.992-32.913
	l69.73,32.912l-28.607,401.297C426.128,470.07,418.817,476.88,410.008,476.88z"/>
<path style="fill:#859093;" d="M162.769,476.88h-60.782c-8.808,0-16.123-6.813-16.75-15.6L56.639,59.987h78.681l17.314,401.293
	C153.01,470.067,157.44,476.88,162.769,476.88z"/>
<g>
	<polygon style="fill:#2A343E;" points="163.439,191.484 132.585,227.222 101.603,191.098 132.328,155.36 	"/>
	<polygon style="fill:#2A343E;" points="194.164,227.222 163.31,262.962 194.421,299.086 225.146,263.219 	"/>
	<polygon style="fill:#2A343E;" points="286.982,335.083 256.257,370.822 225.146,334.826 255.871,298.958 	"/>
	<polyline style="fill:#2A343E;" points="62.763,145.94 70.882,155.354 101.602,119.619 70.62,83.497 59.252,96.662 	"/>
	<polyline style="fill:#2A343E;" points="73.473,296.081 101.602,263.345 70.62,227.222 68.719,229.427 	"/>
	<polygon style="fill:#2A343E;" points="132.328,299.086 101.603,334.826 132.585,370.822 163.439,335.083 	"/>
	<polygon style="fill:#2A343E;" points="317.965,299.086 348.69,263.348 317.707,227.222 286.982,262.962 	"/>
	<polygon style="fill:#2A343E;" points="194.421,155.36 225.146,119.62 194.164,83.496 163.439,119.234 	"/>
	<polygon style="fill:#2A343E;" points="225.146,191.098 255.871,155.36 286.982,191.484 256.257,227.222 	"/>
	<polygon style="fill:#2A343E;" points="379.672,370.822 410.527,335.083 379.543,299.086 348.69,334.826 	"/>
	<polygon style="fill:#2A343E;" points="379.802,227.222 410.527,191.484 379.543,155.36 348.69,191.098 	"/>
	<polygon style="fill:#2A343E;" points="286.982,119.234 317.707,83.496 348.69,119.62 317.965,155.36 	"/>
	<polyline style="fill:#2A343E;" points="438.571,295.538 410.526,262.958 441.256,227.222 443.273,229.563 	"/>
	<polyline style="fill:#2A343E;" points="452.729,96.882 441.256,83.497 410.526,119.232 441.507,155.354 449.197,146.41 	"/>
</g>
<path style="fill:#6D8188;" d="M463.415,59.987H48.585c-8.36,0-15.137-6.777-15.137-15.137V15.137C33.448,6.777,40.225,0,48.585,0
	h414.831c8.36,0,15.137,6.777,15.137,15.137V44.85C478.552,53.209,471.776,59.987,463.415,59.987z"/>
<path style="fill:#5A6B70;" d="M138.455,44.849V15.137c0-8.36,6.776-15.137,15.136-15.137H48.585
	c-8.36,0-15.137,6.777-15.137,15.137V44.85c0,8.359,6.777,15.136,15.137,15.136h105.007
	C145.231,59.987,138.455,53.209,138.455,44.849z"/>
<g>
</g>
<g>
</g>
<g>
</g>
<g>
</g>
<g>
</g>
<g>
</g>
<g>
</g>
<g>
</g>
<g>
</g>
<g>
</g>
<g>
</g>
<g>
</g>
<g>
</g>
<g>
</g>
<g>
</g>
</svg>
